Reproducible research assignment
…
3. Mean and median number of steps taken each day

We remove de NA values since we assume that there are no observations in that period of time.

mean_median_steps <- tib_observations %>%
  filter(!is.na(steps)) %>%
  group_by(date) %>%
  summarize(
    mean = mean(steps, na.rm = T),
    median = median(steps, na.rm = T)
  )
mean_median_steps

## # A tibble: 53 x 3
##    date         mean median
##    <date>      <dbl>  <dbl>
##  1 2012-10-02  0.438      0
##  2 2012-10-03 39.4        0
##  3 2012-10-04 42.1        0
##  4 2012-10-05 46.2        0
##  5 2012-10-06 53.5        0
##  6 2012-10-07 38.2        0
##  7 2012-10-09 44.5        0
##  8 2012-10-10 34.4        0
##  9 2012-10-11 35.8        0
## 10 2012-10-12 60.4        0
## # … with 43 more rows
…
7. Histogram of the total number of steps taken each day after missing values are imputed

tib_filled %>%
  group_by(date) %>%
  summarize(
    steps = sum(steps)
  )

## # A tibble: 61 x 2
##    date       steps
##    <date>     <int>
##  1 2012-10-01 10641
##  2 2012-10-02   126
##  3 2012-10-03 11352
##  4 2012-10-04 12116
##  5 2012-10-05 13294
##  6 2012-10-06 15420
##  7 2012-10-07 11015
##  8 2012-10-08 10641
##  9 2012-10-09 12811
## 10 2012-10-10  9900
## # … with 51 more rows
…
